{
  "books": [
    {
      "nome": "I Robot",
      "autor": "Isac Asimov",
      "id": "1",
      "preco": "53,99"
    },
    {
      "nome": "Fairy tales",
      "autor": "Hans Christian Anderson ",
      "id": "2",
      "preco": "18,36"
    },
    {
      "id": "3",
      "autor": "Dante Alighieri",
      "country": "Italy",
      "imageLink": "images/the-divine-comedy.jpg",
      "language": "Italian",
      "link": "https://en.wikipedia.org/wiki/Divine_Comedy\n",
      "pages": 928,
      "nome": "The Divine Comedy",
      "year": 1315,
      "preco": "13,15"
    },
    {
      "id": "4",
      "autor": "Unknown",
      "country": "Sumer and Akkadian Empire",
      "imageLink": "images/the-epic-of-gilgamesh.jpg",
      "language": "Akkadian",
      "link": "https://en.wikipedia.org/wiki/Epic_of_Gilgamesh\n",
      "pages": 160,
      "nome": "The Epic Of Gilgamesh",
      "year": -1700,
      "preco": "17,00"
    },
    {
      "id": "5",
      "autor": "Unknown",
      "country": "Achaemenid Empire",
      "imageLink": "images/the-book-of-job.jpg",
      "language": "Hebrew",
      "link": "https://en.wikipedia.org/wiki/Book_of_Job\n",
      "pages": 176,
      "nome": "The Book Of Job",
      "year": -600,
      "preco": "60,00"
    },
    {
      "id": "6",
      "autor": "Unknown",
      "country": "India/Iran/Iraq/Egypt/Tajikistan",
      "imageLink": "images/one-thousand-and-one-nights.jpg",
      "language": "Arabic",
      "link": "https://en.wikipedia.org/wiki/One_Thousand_and_One_Nights\n",
      "pages": 288,
      "nome": "One Thousand and One Nights",
      "year": 1200,
      "preco": "12,00"
    }
  ]
}